{
	"name": "d",
	"authors": [
		"Anton Fediushin"
	],
	"description": "Incredible package for the D programming 
language containing the 'd' letter",
	"copyright": "Copyright © 2018, Anton Fediushin",
	"license": "Public domain"
}
